\relax 
\@writefile{toc}{\contentsline {section}{\numberline {1}Introduction}{1}}
\@writefile{lof}{\contentsline {figure}{\numberline {1}{\ignorespaces The 10000 nodes of the network overlayed over the city of Milano. Node 1 is a the bottom left, node 10000 is at the top right.}}{1}}
\newlabel{fig:MI-grid}{{1}{1}}
\@writefile{toc}{\contentsline {section}{\numberline {2}Pagerank}{1}}
\newlabel{sec:pagerank}{{2}{1}}
\@writefile{lof}{\contentsline {figure}{\numberline {2}{\ignorespaces Pageranks results when running it with $\mathbf  {q_1} = \frac  {1} {N}\mathbf  {1}$}}{2}}
\newlabel{fig:visual-rankings}{{2}{2}}
\@writefile{toc}{\contentsline {section}{\numberline {3}Link prediction}{2}}
\newlabel{sec:link-pred}{{3}{2}}
\@writefile{lot}{\contentsline {table}{\numberline {1}{\ignorespaces Example of execution of precision on a subset of 200 nodes.}}{3}}
\@writefile{toc}{\contentsline {section}{\numberline {4}Spectral clustering community detection}{3}}
\newlabel{sec:spect-clust}{{4}{3}}
\@writefile{lof}{\contentsline {figure}{\numberline {3}{\ignorespaces An example of spectral view of the graph as found by GMM, plus the communities found by Kmean, GMM and GT respectively.}}{4}}
\newlabel{fig:spect-clust}{{3}{4}}
\@writefile{toc}{\contentsline {section}{\numberline {5}Overlapping communities}{4}}
\newlabel{sec:BigCLAM}{{5}{4}}
\@writefile{lof}{\contentsline {figure}{\numberline {4}{\ignorespaces Recontructed (left) and original (right) TEST graph of 250 nodes.}}{6}}
\newlabel{fig:test-g-reconstr}{{4}{6}}
\@writefile{toc}{\contentsline {section}{\numberline {6}References}{6}}
\@writefile{lof}{\contentsline {figure}{\numberline {5}{\ignorespaces Recontructed (left) and original (right) REAL graph of $9986$ nodes, plus 9 randomly chosen communities among the 669 fitted. The regularization was too strong, corrupting the result.}}{7}}
\newlabel{fig:real-g-reconstr}{{5}{7}}
